modules/modulator/asd.vcd
$date
	Sun Sep 29 22:48:30 2019
$end
$version
	GTKWave Analyzer v3.3.86 (w)1999-2017 BSI
$end
$timescale
	100ps
$end
$scope module test_modulator $end
$scope module dut $end
$var wire 1 " clk $end
$var wire 1 ( enable $end
$var wire 1 % new_sample $end
$var wire 1 # rst $end
$var wire 8 ' sample[7:0] $end
$var wire 1 ) tc_pwm_step $end
$var wire 8 $ counter_duty[7:0] $end
$var wire 1 & pwm $end
$var wire 8 * sample_reg[7:0] $end
$upscope $end
$upscope $end
$enddefinitions $end
$dumpvars
#0
bx $
bx *
1#
0"
0(
x&
x)
bx '
0%
#100
b0 $
b0 *
1"
0)
#200
0#
0"
#300
1"
0&
#400
1(
0"
#500
1"
#600
0"
1%
b10000000 '
#700
1"
b10000000 *
#800
0"
0%
#900
1"
#1000
0"
#1100
1"
#1200
0"
#1300
1"
1)
#1400
0"
#1500
1"
0)
1&
b1 $
#1600
0"
#1700
1"
#1800
0"
#1900
1"
1)
#2000
0"
#2100
1"
0)
b10 $
#2200
0"
#2300
1"
#2400
0"
#2500
1"
1)
#2600
0"
#2700
1"
0)
b11 $
#2800
0"
#2900
1"
#3000
0"
#3100
1"
1)
#3200
0"
#3300
1"
0)
b100 $
#3400
0"
#3500
1"
#3600
0"
#3700
1"
1)
#3800
0"
#3900
1"
0)
b101 $
#4000
0"
#4100
1"
#4200
0"
#4300
1"
1)
#4400
0"
#4500
1"
0)
b110 $
#4600
0"
#4700
1"
#4800
0"
#4900
1"
1)
#5000
0"
#5100
1"
0)
b111 $
#5200
0"
#5300
1"
#5400
0"
#5500
1"
1)
#5600
0"
#5700
1"
0)
b1000 $
#5800
0"
#5900
1"
#6000
0"
#6100
1"
1)
#6200
0"
#6300
1"
0)
b1001 $
#6400
0"
#6500
1"
#6600
0"
#6700
1"
1)
#6800
0"
#6900
1"
0)
b1010 $
#7000
0"
#7100
1"
#7200
0"
#7300
1"
1)
#7400
0"
#7500
1"
0)
b1011 $
#7600
0"
#7700
1"
#7800
0"
#7900
1"
1)
#8000
0"
#8100
1"
0)
b1100 $
#8200
0"
#8300
1"
#8400
0"
#8500
1"
1)
#8600
0"
#8700
1"
0)
b1101 $
#8800
0"
#8900
1"
#9000
0"
#9100
1"
1)
#9200
0"
#9300
1"
0)
b1110 $
#9400
0"
#9500
1"
#9600
0"
#9700
1"
1)
#9800
0"
#9900
1"
0)
b1111 $
#10000
0"
#10100
1"
#10200
0"
#10300
1"
1)
#10400
0"
#10500
1"
0)
b10000 $
#10600
0"
#10700
1"
#10800
0"
#10900
1"
1)
#11000
0"
#11100
1"
0)
b10001 $
#11200
0"
#11300
1"
#11400
0"
#11500
1"
1)
#11600
0"
#11700
1"
0)
b10010 $
#11800
0"
#11900
1"
#12000
0"
#12100
1"
1)
#12200
0"
#12300
1"
0)
b10011 $
#12400
0"
#12500
1"
#12600
0"
#12700
1"
1)
#12800
0"
#12900
1"
0)
b10100 $
#13000
0"
#13100
1"
#13200
0"
#13300
1"
1)
#13400
0"
#13500
1"
0)
b10101 $
#13600
0"
#13700
1"
#13800
0"
#13900
1"
1)
#14000
0"
#14100
1"
0)
b10110 $
#14200
0"
#14300
1"
#14400
0"
#14500
1"
1)
#14600
0"
#14700
1"
0)
b10111 $
#14800
0"
#14900
1"
#15000
0"
#15100
1"
1)
#15200
0"
#15300
1"
0)
b11000 $
#15400
0"
#15500
1"
#15600
0"
#15700
1"
1)
#15800
0"
#15900
1"
0)
b11001 $
#16000
0"
#16100
1"
#16200
0"
#16300
1"
1)
#16400
0"
#16500
1"
0)
b11010 $
#16600
0"
#16700
1"
#16800
0"
#16900
1"
1)
#17000
0"
#17100
1"
0)
b11011 $
#17200
0"
#17300
1"
#17400
0"
#17500
1"
1)
#17600
0"
#17700
1"
0)
b11100 $
#17800
0"
#17900
1"
#18000
0"
#18100
1"
1)
#18200
0"
#18300
1"
0)
b11101 $
#18400
0"
#18500
1"
#18600
0"
#18700
1"
1)
#18800
0"
#18900
1"
0)
b11110 $
#19000
0"
#19100
1"
#19200
0"
#19300
1"
1)
#19400
0"
#19500
1"
0)
b11111 $
#19600
0"
#19700
1"
#19800
0"
#19900
1"
1)
#20000
0"
#20100
1"
0)
b100000 $
#20200
0"
#20300
1"
#20400
0"
#20500
1"
1)
#20600
0"
#20700
1"
0)
b100001 $
#20800
0"
#20900
1"
#21000
0"
#21100
1"
1)
#21200
0"
#21300
1"
0)
b100010 $
#21400
0"
#21500
1"
#21600
0"
#21700
1"
1)
#21800
0"
#21900
1"
0)
b100011 $
#22000
0"
#22100
1"
#22200
0"
#22300
1"
1)
#22400
0"
#22500
1"
0)
b100100 $
#22600
0"
#22700
1"
#22800
0"
#22900
1"
1)
#23000
0"
#23100
1"
0)
b100101 $
#23200
0"
#23300
1"
#23400
0"
#23500
1"
1)
#23600
0"
#23700
1"
0)
b100110 $
#23800
0"
#23900
1"
#24000
0"
#24100
1"
1)
#24200
0"
#24300
1"
0)
b100111 $
#24400
0"
#24500
1"
#24600
0"
#24700
1"
1)
#24800
0"
#24900
1"
0)
b101000 $
#25000
0"
#25100
1"
#25200
0"
#25300
1"
1)
#25400
0"
#25500
1"
0)
b101001 $
#25600
0"
#25700
1"
#25800
0"
#25900
1"
1)
#26000
0"
#26100
1"
0)
b101010 $
#26200
0"
#26300
1"
#26400
0"
#26500
1"
1)
#26600
0"
#26700
1"
0)
b101011 $
#26800
0"
#26900
1"
#27000
0"
#27100
1"
1)
#27200
0"
#27300
1"
0)
b101100 $
#27400
0"
#27500
1"
#27600
0"
#27700
1"
1)
#27800
0"
#27900
1"
0)
b101101 $
#28000
0"
#28100
1"
#28200
0"
#28300
1"
1)
#28400
0"
#28500
1"
0)
b101110 $
#28600
0"
#28700
1"
#28800
0"
#28900
1"
1)
#29000
0"
#29100
1"
0)
b101111 $
#29200
0"
#29300
1"
#29400
0"
#29500
1"
1)
#29600
0"
#29700
1"
0)
b110000 $
#29800
0"
#29900
1"
#30000
0"
#30100
1"
1)
#30200
0"
#30300
1"
0)
b110001 $
#30400
0"
#30500
1"
#30600
0"
#30700
1"
1)
#30800
0"
#30900
1"
0)
b110010 $
#31000
0"
#31100
1"
#31200
0"
#31300
1"
1)
#31400
0"
#31500
1"
0)
b110011 $
#31600
0"
#31700
1"
#31800
0"
#31900
1"
1)
#32000
0"
#32100
1"
0)
b110100 $
#32200
0"
#32300
1"
#32400
0"
#32500
1"
1)
#32600
0"
#32700
1"
0)
b110101 $
#32800
0"
#32900
1"
#33000
0"
#33100
1"
1)
#33200
0"
#33300
1"
0)
b110110 $
#33400
0"
#33500
1"
#33600
0"
#33700
1"
1)
#33800
0"
#33900
1"
0)
b110111 $
#34000
0"
#34100
1"
#34200
0"
#34300
1"
1)
#34400
0"
#34500
1"
0)
b111000 $
#34600
0"
#34700
1"
#34800
0"
#34900
1"
1)
#35000
0"
#35100
1"
0)
b111001 $
#35200
0"
#35300
1"
#35400
0"
#35500
1"
1)
#35600
0"
#35700
1"
0)
b111010 $
#35800
0"
#35900
1"
#36000
0"
#36100
1"
1)
#36200
0"
#36300
1"
0)
b111011 $
#36400
0"
#36500
1"
#36600
0"
#36700
1"
1)
#36800
0"
#36900
1"
0)
b111100 $
#37000
0"
#37100
1"
#37200
0"
#37300
1"
1)
#37400
0"
#37500
1"
0)
b111101 $
#37600
0"
#37700
1"
#37800
0"
#37900
1"
1)
#38000
0"
#38100
1"
0)
b111110 $
#38200
0"
#38300
1"
#38400
0"
#38500
1"
1)
#38600
0"
#38700
1"
0)
b111111 $
#38800
0"
#38900
1"
#39000
0"
#39100
1"
1)
#39200
0"
#39300
1"
0)
b1000000 $
#39400
0"
#39500
1"
#39600
0"
#39700
1"
1)
#39800
0"
#39900
1"
0)
b1000001 $
#40000
0"
#40100
1"
#40200
0"
#40300
1"
1)
#40400
0"
#40500
1"
0)
b1000010 $
#40600
0"
#40700
1"
#40800
0"
#40900
1"
1)
#41000
0"
#41100
1"
0)
b1000011 $
#41200
0"
#41300
1"
#41400
0"
#41500
1"
1)
#41600
0"
#41700
1"
0)
b1000100 $
#41800
0"
#41900
1"
#42000
0"
#42100
1"
1)
#42200
0"
#42300
1"
0)
b1000101 $
#42400
0"
#42500
1"
#42600
0"
#42700
1"
1)
#42800
0"
#42900
1"
0)
b1000110 $
#43000
0"
#43100
1"
#43200
0"
#43300
1"
1)
#43400
0"
#43500
1"
0)
b1000111 $
#43600
0"
#43700
1"
#43800
0"
#43900
1"
1)
#44000
0"
#44100
1"
0)
b1001000 $
#44200
0"
#44300
1"
#44400
0"
#44500
1"
1)
#44600
0"
#44700
1"
0)
b1001001 $
#44800
0"
#44900
1"
#45000
0"
#45100
1"
1)
#45200
0"
#45300
1"
0)
b1001010 $
#45400
0"
#45500
1"
#45600
0"
#45700
1"
1)
#45800
0"
#45900
1"
0)
b1001011 $
#46000
0"
#46100
1"
#46200
0"
#46300
1"
1)
#46400
0"
#46500
1"
0)
b1001100 $
#46600
0"
#46700
1"
#46800
0"
#46900
1"
1)
#47000
0"
#47100
1"
0)
b1001101 $
#47200
0"
#47300
1"
#47400
0"
#47500
1"
1)
#47600
0"
#47700
1"
0)
b1001110 $
#47800
0"
#47900
1"
#48000
0"
#48100
1"
1)
#48200
0"
#48300
1"
0)
b1001111 $
#48400
0"
#48500
1"
#48600
0"
#48700
1"
1)
#48800
0"
#48900
1"
0)
b1010000 $
#49000
0"
#49100
1"
#49200
0"
#49300
1"
1)
#49400
0"
#49500
1"
0)
b1010001 $
#49600
0"
#49700
1"
#49800
0"
#49900
1"
1)
#50000
0"
#50100
1"
0)
b1010010 $
#50200
0"
#50300
1"
#50400
0"
#50500
1"
1)
#50600
0"
#50700
1"
0)
b1010011 $
#50800
0"
#50900
1"
#51000
0"
#51100
1"
1)
#51200
0"
#51300
1"
0)
b1010100 $
#51400
0"
#51500
1"
#51600
0"
#51700
1"
1)
#51800
0"
#51900
1"
0)
b1010101 $
#52000
0"
#52100
1"
#52200
0"
#52300
1"
1)
#52400
0"
#52500
1"
0)
b1010110 $
#52600
0"
#52700
1"
#52800
0"
#52900
1"
1)
#53000
0"
#53100
1"
0)
b1010111 $
#53200
0"
#53300
1"
#53400
0"
#53500
1"
1)
#53600
0"
#53700
1"
0)
b1011000 $
#53800
0"
#53900
1"
#54000
0"
#54100
1"
1)
#54200
0"
#54300
1"
0)
b1011001 $
#54400
0"
#54500
1"
#54600
0"
#54700
1"
1)
#54800
0"
#54900
1"
0)
b1011010 $
#55000
0"
#55100
1"
#55200
0"
#55300
1"
1)
#55400
0"
#55500
1"
0)
b1011011 $
#55600
0"
#55700
1"
#55800
0"
#55900
1"
1)
#56000
0"
#56100
1"
0)
b1011100 $
#56200
0"
#56300
1"
#56400
0"
#56500
1"
1)
#56600
0"
#56700
1"
0)
b1011101 $
#56800
0"
#56900
1"
#57000
0"
#57100
1"
1)
#57200
0"
#57300
1"
0)
b1011110 $
#57400
0"
#57500
1"
#57600
0"
#57700
1"
1)
#57800
0"
#57900
1"
0)
b1011111 $
#58000
0"
#58100
1"
#58200
0"
#58300
1"
1)
#58400
0"
#58500
1"
0)
b1100000 $
#58600
0"
#58700
1"
#58800
0"
#58900
1"
1)
#59000
0"
#59100
1"
0)
b1100001 $
#59200
0"
#59300
1"
#59400
0"
#59500
1"
1)
#59600
0"
#59700
1"
0)
b1100010 $
#59800
0"
#59900
1"
#60000
0"
#60100
1"
1)
#60200
0"
#60300
1"
0)
b1100011 $
#60400
0"
#60500
1"
#60600
0"
#60700
1"
1)
#60800
0"
#60900
1"
0)
b1100100 $
#61000
0"
#61100
1"
#61200
0"
#61300
1"
1)
#61400
0"
#61500
1"
0)
b1100101 $
#61600
0"
#61700
1"
#61800
0"
#61900
1"
1)
#62000
0"
#62100
1"
0)
b1100110 $
#62200
0"
#62300
1"
#62400
0"
#62500
1"
1)
#62600
0"
#62700
1"
0)
b1100111 $
#62800
0"
#62900
1"
#63000
0"
#63100
1"
1)
#63200
0"
#63300
1"
0)
b1101000 $
#63400
0"
#63500
1"
#63600
0"
#63700
1"
1)
#63800
0"
#63900
1"
0)
b1101001 $
#64000
0"
#64100
1"
#64200
0"
#64300
1"
1)
#64400
0"
#64500
1"
0)
b1101010 $
#64600
0"
#64700
1"
#64800
0"
#64900
1"
1)
#65000
0"
#65100
1"
0)
b1101011 $
#65200
0"
#65300
1"
#65400
0"
#65500
1"
1)
#65600
0"
#65700
1"
0)
b1101100 $
#65800
0"
#65900
1"
#66000
0"
#66100
1"
1)
#66200
0"
#66300
1"
0)
b1101101 $
#66400
0"
#66500
1"
#66600
0"
#66700
1"
1)
#66800
0"
#66900
1"
0)
b1101110 $
#67000
0"
#67100
1"
#67200
0"
#67300
1"
1)
#67400
0"
#67500
1"
0)
b1101111 $
#67600
0"
#67700
1"
#67800
0"
#67900
1"
1)
#68000
0"
#68100
1"
0)
b1110000 $
#68200
0"
#68300
1"
#68400
0"
#68500
1"
1)
#68600
0"
#68700
1"
0)
b1110001 $
#68800
0"
#68900
1"
#69000
0"
#69100
1"
1)
#69200
0"
#69300
1"
0)
b1110010 $
#69400
0"
#69500
1"
#69600
0"
#69700
1"
1)
#69800
0"
#69900
1"
0)
b1110011 $
#70000
0"
#70100
1"
#70200
0"
#70300
1"
1)
#70400
0"
#70500
1"
0)
b1110100 $
#70600
0"
#70700
1"
#70800
0"
#70900
1"
1)
#71000
0"
#71100
1"
0)
b1110101 $
#71200
0"
#71300
1"
#71400
0"
#71500
1"
1)
#71600
0"
#71700
1"
0)
b1110110 $
#71800
0"
#71900
1"
#72000
0"
#72100
1"
1)
#72200
0"
#72300
1"
0)
b1110111 $
#72400
0"
#72500
1"
#72600
0"
#72700
1"
1)
#72800
0"
#72900
1"
0)
b1111000 $
#73000
0"
#73100
1"
#73200
0"
#73300
1"
1)
#73400
0"
#73500
1"
0)
b1111001 $
#73600
0"
#73700
1"
#73800
0"
#73900
1"
1)
#74000
0"
#74100
1"
0)
b1111010 $
#74200
0"
#74300
1"
#74400
0"
#74500
1"
1)
#74600
0"
#74700
1"
0)
b1111011 $
#74800
0"
#74900
1"
#75000
0"
#75100
1"
1)
#75200
0"
#75300
1"
0)
b1111100 $
#75400
0"
#75500
1"
#75600
0"
#75700
1"
1)
#75800
0"
#75900
1"
0)
b1111101 $
#76000
0"
#76100
1"
#76200
0"
#76300
1"
1)
#76400
0"
#76500
1"
0)
b1111110 $
#76600
0"
#76700
1"
#76800
0"
#76900
1"
1)
#77000
0"
#77100
1"
0)
b1111111 $
#77200
0"
#77300
1"
#77400
0"
#77500
1"
1)
#77600
0"
#77700
1"
0)
b10000000 $
#77800
0"
#77900
1"
#78000
0"
#78100
1"
1)
#78200
0"
#78300
1"
0)
b10000001 $
#78400
0"
#78500
1"
#78600
0"
#78700
1"
1)
#78800
0"
#78900
1"
0)
0&
#79000
0"
#79100
1"
#79200
0"
#79300
1"
1)
#79400
0"
#79500
1"
0)
#79600
0"
#79700
1"
#79800
0"
#79900
1"
1)
#80000
0"
#80100
1"
0)
#80200
0"
#80300
1"
#80400
0"
#80500
1"
1)
#80600
0"
#80700
1"
0)
#80800
0"
#80900
1"
#81000
0"
#81100
1"
1)
#81200
0"
#81300
1"
0)
#81400
0"
#81500
1"
#81600
0"
#81700
1"
1)
#81800
0"
#81900
1"
0)
#82000
0"
#82100
1"
#82200
0"
#82300
1"
1)
#82400
0"
#82500
1"
0)
#82600
0"
#82700
1"
#82800
0"
#82900
1"
1)
#83000
0"
#83100
1"
0)
#83200
0"
#83300
1"
#83400
0"
#83500
1"
1)
#83600
0"
#83700
1"
0)
#83800
0"
#83900
1"
#84000
0"
#84100
1"
1)
#84200
0"
#84300
1"
0)
#84400
0"
#84500
1"
#84600
0"
#84700
1"
1)
#84800
0"
#84900
1"
0)
#85000
0"
#85100
1"
#85200
0"
#85300
1"
1)
#85400
0"
#85500
1"
0)
#85600
0"
#85700
1"
#85800
0"
#85900
1"
1)
#86000
0"
#86100
1"
0)
#86200
0"
#86300
1"
#86400
0"
#86500
1"
1)
#86600
0"
#86700
1"
0)
#86800
0"
#86900
1"
#87000
0"
#87100
1"
1)
#87200
0"
#87300
1"
0)
#87400
0"
#87500
1"
#87600
0"
#87700
1"
1)
#87800
0"
#87900
1"
0)
#88000
0"
#88100
1"
#88200
0"
#88300
1"
1)
#88400
0"
#88500
1"
0)
#88600
0"
#88700
1"
#88800
0"
#88900
1"
1)
#89000
0"
#89100
1"
0)
#89200
0"
#89300
1"
#89400
0"
#89500
1"
1)
#89600
0"
#89700
1"
0)
#89800
0"
#89900
1"
#90000
0"
#90100
1"
1)
#90200
0"
#90300
1"
0)
#90400
0"
#90500
1"
#90600
0"
#90700
1"
1)
#90800
0"
#90900
1"
0)
#91000
0"
#91100
1"
#91200
0"
#91300
1"
1)
#91400
0"
#91500
1"
0)
#91600
0"
#91700
1"
#91800
0"
#91900
1"
1)
#92000
0"
#92100
1"
0)
#92200
0"
#92300
1"
#92400
0"
#92500
1"
1)
#92600
0"
#92700
1"
0)
#92800
0"
#92900
1"
#93000
0"
#93100
1"
1)
#93200
0"
#93300
1"
0)
#93400
0"
#93500
1"
#93600
0"
#93700
1"
1)
#93800
0"
#93900
1"
0)
#94000
0"
#94100
1"
#94200
0"
#94300
1"
1)
#94400
0"
#94500
1"
0)
#94600
0"
#94700
1"
#94800
0"
#94900
1"
1)
#95000
0"
#95100
1"
0)
#95200
0"
#95300
1"
#95400
0"
#95500
1"
1)
#95600
0"
#95700
1"
0)
#95800
0"
#95900
1"
#96000
0"
#96100
1"
1)
#96200
0"
#96300
1"
0)
#96400
0"
#96500
1"
#96600
0"
#96700
1"
1)
#96800
0"
#96900
1"
0)
#97000
0"
#97100
1"
#97200
0"
#97300
1"
1)
#97400
0"
#97500
1"
0)
#97600
0"
#97700
1"
#97800
0"
#97900
1"
1)
#98000
0"
#98100
1"
0)
#98200
0"
#98300
1"
#98400
0"
#98500
1"
1)
#98600
0"
#98700
1"
0)
#98800
0"
#98900
1"
#99000
0"
#99100
1"
1)
#99200
0"
#99300
1"
0)
#99400
0"
#99500
1"
#99600
0"
#99700
1"
1)
#99800
0"
#99900
1"
0)
#100000
0"
#100100
1"
#100200
0"
#100300
1"
1)
#100400
0"
#100500
1"
0)
#100600
0"
#100700
1"
#100800
0"
#100900
1"
1)
#101000
0"
#101100
1"
0)
#101200
0"
#101300
1"
#101400
0"
#101500
1"
1)
#101600
0"
#101700
1"
0)
#101800
0"
#101900
1"
#102000
0"
#102100
1"
1)
#102200
0"
#102300
1"
0)
#102400
0"
#102500
1"
#102600
0"
#102700
1"
1)
#102800
0"
#102900
1"
0)
#103000
0"
#103100
1"
#103200
0"
#103300
1"
1)
#103400
0"
#103500
1"
0)
#103600
0"
#103700
1"
#103800
0"
#103900
1"
1)
#104000
0"
#104100
1"
0)
#104200
0"
#104300
1"
#104400
0"
#104500
1"
1)
#104600
0"
#104700
1"
0)
#104800
0"
#104900
1"
#105000
0"
#105100
1"
1)
#105200
0"
#105300
1"
0)
#105400
0"
#105500
1"
#105600
0"
#105700
1"
1)
#105800
0"
#105900
1"
0)
#106000
0"
#106100
1"
#106200
0"
#106300
1"
1)
#106400
0"
#106500
1"
0)
#106600
0"
#106700
1"
#106800
0"
#106900
1"
1)
#107000
0"
#107100
1"
0)
#107200
0"
#107300
1"
#107400
0"
#107500
1"
1)
#107600
0"
#107700
1"
0)
#107800
0"
#107900
1"
#108000
0"
#108100
1"
1)
#108200
0"
#108300
1"
0)
#108400
0"
#108500
1"
#108600
0"
#108700
1"
1)
#108800
0"
#108900
1"
0)
#109000
0"
#109100
1"
#109200
0"
#109300
1"
1)
#109400
0"
#109500
1"
0)
#109600
0"
#109700
1"
#109800
0"
#109900
1"
1)
#110000
0"
#110100
1"
0)
#110200
0"
#110300
1"
#110400
0"
#110500
1"
1)
#110600
0"
#110700
1"
0)
#110800
0"
#110900
1"
#111000
0"
#111100
1"
1)
#111200
0"
#111300
1"
0)
#111400
0"
#111500
1"
#111600
0"
#111700
1"
1)
#111800
0"
#111900
1"
0)
#112000
0"
#112100
1"
#112200
0"
#112300
1"
1)
#112400
0"
#112500
1"
0)
#112600
0"
#112700
1"
#112800
0"
#112900
1"
1)
#113000
0"
#113100
1"
0)
#113200
0"
#113300
1"
#113400
0"
#113500
1"
1)
#113600
0"
#113700
1"
0)
#113800
0"
#113900
1"
#114000
0"
#114100
1"
1)
#114200
0"
#114300
1"
0)
#114400
0"
#114500
1"
#114600
0"
#114700
1"
1)
#114800
0"
#114900
1"
0)
#115000
0"
#115100
1"
#115200
0"
#115300
1"
1)
#115400
0"
#115500
1"
0)
#115600
0"
#115700
1"
#115800
0"
#115900
1"
1)
#116000
0"
#116100
1"
0)
#116200
0"
#116300
1"
#116400
0"
#116500
1"
1)
#116600
0"
#116700
1"
0)
#116800
0"
#116900
1"
#117000
0"
#117100
1"
1)
#117200
0"
#117300
1"
0)
#117400
0"
#117500
1"
#117600
0"
#117700
1"
1)
#117800
0"
#117900
1"
0)
#118000
0"
#118100
1"
#118200
0"
#118300
1"
1)
#118400
0"
#118500
1"
0)
#118600
0"
#118700
1"
#118800
0"
#118900
1"
1)
#119000
0"
#119100
1"
0)
#119200
0"
#119300
1"
#119400
0"
#119500
1"
1)
#119600
0"
#119700
1"
0)
#119800
0"
#119900
1"
#120000
0"
#120100
1"
1)
#120200
0"
#120300
1"
0)
#120400
0"
#120500
1"
#120600
0"
#120700
1"
1)
#120800
0"
#120900
1"
0)
#121000
0"
#121100
1"
#121200
0"
#121300
1"
1)
#121400
0"
#121500
1"
0)
#121600
0"
#121700
1"
#121800
0"
#121900
1"
1)
#122000
0"
#122100
1"
0)
#122200
0"
#122300
1"
#122400
0"
#122500
1"
1)
#122600
0"
#122700
1"
0)
#122800
0"
#122900
1"
#123000
0"
#123100
1"
1)
#123200
0"
#123300
1"
0)
#123400
0"
#123500
1"
#123600
0"
#123700
1"
1)
#123800
0"
#123900
1"
0)
#124000
0"
#124100
1"
#124200
0"
#124300
1"
1)
#124400
0"
#124500
1"
0)
#124600
0"
#124700
1"
#124800
0"
#124900
1"
1)
#125000
0"
#125100
1"
0)
#125200
0"
#125300
1"
#125400
0"
#125500
1"
1)
#125600
0"
#125700
1"
0)
#125800
0"
#125900
1"
#126000
0"
#126100
1"
1)
#126200
0"
#126300
1"
0)
#126400
0"
#126500
1"
#126600
0"
#126700
1"
1)
#126800
0"
#126900
1"
0)
#127000
0"
#127100
1"
#127200
0"
#127300
1"
1)
#127400
0"
#127500
1"
0)
#127600
0"
#127700
1"
#127800
0"
#127900
1"
1)
#128000
0"
#128100
1"
0)
#128200
0"
#128300
1"
#128400
0"
#128500
1"
1)
#128600
0"
#128700
1"
0)
#128800
0"
#128900
1"
#129000
0"
#129100
1"
1)
#129200
0"
#129300
1"
0)
#129400
0"
#129500
1"
#129600
0"
#129700
1"
1)
#129800
0"
#129900
1"
0)
#130000
0"
#130100
1"
#130200
0"
#130300
1"
1)
#130400
0"
#130500
1"
0)
#130600
0"
#130700
1"
#130800
0"
#130900
1"
1)
#131000
0"
#131100
1"
0)
#131200
0"
#131300
1"
#131400
0"
#131500
1"
1)
#131600
0"
#131700
1"
0)
#131800
0"
#131900
1"
#132000
0"
#132100
1"
1)
#132200
0"
#132300
1"
0)
#132400
0"
#132500
1"
#132600
0"
#132700
1"
1)
#132800
0"
#132900
1"
0)
#133000
0"
#133100
1"
#133200
0"
#133300
1"
1)
#133400
0"
#133500
1"
0)
#133600
0"
#133700
1"
#133800
0"
#133900
1"
1)
#134000
0"
#134100
1"
0)
#134200
0"
#134300
1"
#134400
0"
#134500
1"
1)
#134600
0"
#134700
1"
0)
#134800
0"
#134900
1"
#135000
0"
#135100
1"
1)
#135200
0"
#135300
1"
0)
#135400
0"
#135500
1"
#135600
0"
#135700
1"
1)
#135800
0"
#135900
1"
0)
#136000
0"
#136100
1"
#136200
0"
#136300
1"
1)
#136400
0"
#136500
1"
0)
#136600
0"
#136700
1"
#136800
0"
#136900
1"
1)
#137000
0"
#137100
1"
0)
#137200
0"
#137300
1"
#137400
0"
#137500
1"
1)
#137600
0"
#137700
1"
0)
#137800
0"
#137900
1"
#138000
0"
#138100
1"
1)
#138200
0"
#138300
1"
0)
#138400
0"
#138500
1"
#138600
0"
#138700
1"
1)
#138800
0"
#138900
1"
0)
#139000
0"
#139100
1"
#139200
0"
#139300
1"
1)
#139400
0"
#139500
1"
0)
#139600
0"
#139700
1"
#139800
0"
#139900
1"
1)
#140000
0"
#140100
1"
0)
#140200
0"
#140300
1"
#140400
0"
#140500
1"
1)
#140600
0"
#140700
1"
0)
#140800
0"
#140900
1"
#141000
0"
#141100
1"
1)
#141200
0"
#141300
1"
0)
#141400
0"
#141500
1"
#141600
0"
#141700
1"
1)
#141800
0"
#141900
1"
0)
#142000
0"
#142100
1"
#142200
0"
#142300
1"
1)
#142400
0"
#142500
1"
0)
#142600
0"
#142700
1"
#142800
0"
#142900
1"
1)
#143000
0"
#143100
1"
0)
#143200
0"
#143300
1"
#143400
0"
#143500
1"
1)
#143600
0"
#143700
1"
0)
#143800
0"
#143900
1"
#144000
0"
#144100
1"
1)
#144200
0"
#144300
1"
0)
#144400
0"
#144500
1"
#144600
0"
#144700
1"
1)
#144800
0"
#144900
1"
0)
#145000
0"
#145100
1"
#145200
0"
#145300
1"
1)
#145400
0"
#145500
1"
0)
#145600
0"
#145700
1"
#145800
0"
#145900
1"
1)
#146000
0"
#146100
1"
0)
#146200
0"
#146300
1"
#146400
0"
#146500
1"
1)
#146600
0"
#146700
1"
0)
#146800
0"
#146900
1"
#147000
0"
#147100
1"
1)
#147200
0"
#147300
1"
0)
#147400
0"
#147500
1"
#147600
0"
#147700
1"
1)
#147800
0"
#147900
1"
0)
#148000
0"
#148100
1"
#148200
0"
#148300
1"
1)
#148400
0"
#148500
1"
0)
#148600
0"
#148700
1"
#148800
0"
#148900
1"
1)
#149000
0"
#149100
1"
0)
#149200
0"
#149300
1"
#149400
0"
#149500
1"
1)
#149600
0"
#149700
1"
0)
#149800
0"
#149900
1"
#150000
0"
#150100
1"
1)
#150200
0"
#150300
1"
0)
#150400
0"
#150500
1"
#150600
0"
#150700
1"
1)
#150800
0"
#150900
1"
0)
#151000
0"
#151100
1"
#151200
0"
#151300
1"
1)
#151400
0"
#151500
1"
0)
#151600
0"
#151700
1"
#151800
0"
#151900
1"
1)
#152000
0"
#152100
1"
0)
#152200
0"
#152300
1"
#152400
0"
#152500
1"
1)
#152600
0"
#152700
1"
0)
#152800
0"
#152900
1"
#153000
0"
#153100
1"
1)
#153200
0"
#153300
1"
0)
#153400
0"
#153500
1"
#153600
0"
#153700
1"
1)
#153800
0"
#153900
1"
0)
#154000
0"
#154100
1"
#154200
0"
#154300
1"
1)
#154400
0"
#154500
1"
0)
#154600
0"
#154700
1"
#154800
0"
#154900
1"
1)
#155000
0"
#155100
1"
0)
#155200
0"
#155300
1"
#155400
0"
#155500
1"
1)
#155600
0"
#155700
1"
0)
#155800
0"
#155900
1"
#156000
0"
#156100
1"
1)
#156200
0"
#156300
1"
0)
#156400
0"
#156500
1"
#156600
0"
#156700
1"
1)
#156800
0"
#156900
1"
0)
#157000
0"
#157100
1"
#157200
0"
#157300
1"
1)
#157400
0"
#157500
1"
0)
#157600
0"
#157700
1"
#157800
0"
#157900
1"
1)
#158000
0"
#158100
1"
0)
#158200
0"
#158300
1"
#158400
0"
#158500
1"
1)
#158600
0"
#158700
1"
0)
#158800
0"
#158900
1"
#159000
0"
#159100
1"
1)
#159200
0"
#159300
1"
0)
#159400
0"
#159500
1"
#159600
0"
#159700
1"
1)
#159800
0"
#159900
1"
0)
#160000
0"
#160100
1"
#160200
0"
#160300
1"
1)
#160400
0"
#160500
1"
0)
#160600
0"
#160700
1"
#160800
0"
#160900
1"
1)
#161000
0"
#161100
1"
0)
#161200
0"
#161300
1"
#161400
0"
#161500
1"
1)
#161600
0"
#161700
1"
0)
#161800
0"
#161900
1"
#162000
0"
#162100
1"
1)
#162200
0"
#162300
1"
0)
#162400
0"
#162500
1"
#162600
0"
#162700
1"
1)
#162800
0"
#162900
1"
0)
#163000
0"
#163100
1"
#163200
0"
#163300
1"
1)
#163400
0"
#163500
1"
0)
#163600
0"
#163700
1"
#163800
0"
#163900
1"
1)
#164000
0"
#164100
1"
0)
#164200
0"
#164300
1"
#164400
0"
#164500
1"
1)
#164600
0"
#164700
1"
0)
#164800
0"
#164900
1"
#165000
0"
#165100
1"
1)
#165200
0"
#165300
1"
0)
#165400
0"
#165500
1"
#165600
0"
#165700
1"
1)
#165800
0"
#165900
1"
0)
#166000
0"
#166100
1"
#166200
0"
#166300
1"
1)
#166400
0"
#166500
1"
0)
#166600
0"
#166700
1"
#166800
0"
#166900
1"
1)
#167000
0"
#167100
1"
0)
#167200
0"
#167300
1"
#167400
0"
#167500
1"
1)
#167600
0"
#167700
1"
0)
#167800
0"
#167900
1"
#168000
0"
#168100
1"
1)
#168200
0"
#168300
1"
0)
#168400
0"
#168500
1"
#168600
0"
#168700
1"
1)
#168800
0"
#168900
1"
0)
#169000
0"
#169100
1"
#169200
0"
#169300
1"
1)
#169400
0"
#169500
1"
0)
#169600
0"
#169700
1"
#169800
0"
#169900
1"
1)
#170000
0"
#170100
1"
0)
#170200
0"
#170300
1"
#170400
0"
#170500
1"
1)
#170600
0"
#170700
1"
0)
#170800
0"
#170900
1"
#171000
0"
#171100
1"
1)
#171200
0"
#171300
1"
0)
#171400
0"
#171500
1"
#171600
0"
#171700
1"
1)
#171800
0"
#171900
1"
0)
#172000
0"
#172100
1"
#172200
0"
#172300
1"
1)
#172400
0"
#172500
1"
0)
#172600
0"
